{
  "images": [
    {
      "scale": "1x",
      "idiom": "universal",
      "filename": "confirmation_code_icon.png"
    },
    {
      "scale": "2x",
      "idiom": "universal",
      "filename": "confirmation_code_icon@2x.png"
    },
    {
      "scale": "3x",
      "idiom": "universal",
      "filename": "confirmation_code_icon@3x.png"
    },
    {
      "idiom": "universal"
    }
  ],
  "properties": {
    "template-rendering-intent": ""
  },
  "info": {
    "version": 1,
    "author": "xcode"
  }
}